{
	"uuid": "docker@stickman_0x00.com",
	"name": "Docker",
	"description": "Quick access to docker.",
	"version": 12,
	"shell-version": [
		"42",
		"43"
	],
	"url": "https://gitlab.com/stickman_0x00/gnome_shell_extension_docker"
}